ITWR_BOOK_02_01.3DS 0 -90 0 3722.0496521196 1.9761791229248 -5822.5299895317
DT_BOOKS_01.3DS 0 -30 360 3364.0946896675 11.17181968689 -5318.8418796106
DOOR_NW_RICH_01.MDS 0 -5 0 74715.558020276 3512.296875 -9123.0818011338
DOOR_NW_RICH_01.MDS 0 85 0 74471.911256885 3511.9926757812 -12656.062572922
NW_CITY_BOOKSHELF_01.3DS 0 -55 0 3200.9591844254 -18.278430938721 -5520.7576981319
ITWR_BOOK_02_05.3DS 0 -110 0 3444.1961548264 -17.57085609436 -6317.8183753026
ITKE_LOCKPICK.3DS -25 -5 65 3596.1163085271 -8.0075817108154 -6015.1206545451
NW_CITY_DECO_PICTURE_02.3DS 0 35 0 3644.5282888691 120.60622406006 -5463.6764105881
DOOR_NW_RICH_01.MDS 0 0 0 -9843.8967756615 556.33685302734 -18777.294491359
DOOR_NW_RICH_01.MDS 0 25 0 -9900.6527125835 558.89575195312 -18765.288018887
DOOR_NW_RICH_01.MDS 0 -10 0 -9818.4686840579 558.81176757812 18772.609051791
ORC_E_WALL.3DS 0 45 0 31247.495387008 4428.9750976562 -15739.902112395
OC_LEATHERSTAND_V01.3DS 0 40 0 2558.8522367881 10.689277648926 -6189.2978956627
NW_MISC_CAVE_BOARDING_01.3DS 0 0 0 2915.6287372371 328.50328063965 13281.511863954
DT_SKELETON_V01.3DS 0 -40 0 60426.961457674 1935.0590820312 8207.287385447
OW_FOREST_HANGHIM_TREE_V3.3DS 0 -30 0 60726.907716543 2265.298828125 7111.9589767804
ORC_SKULLSONSTAFF.3DS 0 -145 5 61092.263661444 2077.5589599609 8268.5822043937
OC_LOB_FIREPLACE_HUGE.3DS 0 -90 0 58945.905476797 1663.6145019531 9082.1671929503
OC_FIREWOOD_V3.3DS 0 -110 0 59025.045819029 1602.3972167969 8797.5884352882
OC_FIREPLACE_V1.3DS -5 -110 0 60060.249240184 1603.6334228516 9037.2493744493
OC_CHICKENSTICK_V02.3DS -5 -180 0 59429.512398161 1732.2457275391 8695.2730978298
OC_BIGLIGHTER_01.3DS 0 -180 0 59484.552942822 1942.4282226562 9235.5564088419
OC_BARREL_V1.3DS 0 -180 0 59016.810388081 1662.1335449219 9395.1103698092
OC_BARREL_V1.3DS 0 -180 15 59086.250076672 1653.5657958984 9454.7730816899
NW_MISC_CAVE_BOARDING_01.3DS 0 -165 0 60182.762597559 1899.6317138672 10223.381918253
DT_TABLE_01.3DS 0 -165 0 59551.220199297 1643.6339111328 9104.7352236144
DT_2ND_FLOOR_BANNKREIS.3DS 0 -210 0 58648.334203601 1637.0661621094 10681.968891662
OW_FOCUS_V02.3DS 0 -225 0 58646.30017514 1683.8120117188 10681.24861511
DT_SKELETON_V01_HEAD.3DS 0 -105 20 58641.151958136 1745.8699951172 10678.831661405
NW_CITY_BOOKSHELF_01.3DS 0 -20 0 58605.458987656 1799.2864990234 11299.001001835
NW_CITY_CUPBOARD_POOR_02.3DS 0 195 0 58567.261431197 1750.3759765625 10052.347659869
NW_CITY_CUPBOARD_POOR_02.3DS 0 215 0 58423.446967036 1750.3666992188 10121.647380129
NW_CITY_CUPBOARD_POOR_02.3DS 0 170 0 58733.879060653 1750.3768310547 10041.129086264
NW_CITY_CUPBOARD_POOR_02.3DS 0 145 0 58877.806967874 1755.7065429688 10107.782924066
OC_DECORATE_V5.3DS 0 120 0 58944.669931605 1754.8045654297 10149.577282318
OC_DECORATE_V5.3DS 5 215 0 58392.930784364 1756.6573486328 10173.9571933
EVT_SPAWN_01.3DS 0 0 0 58645.697406214 1839.5142822266 10677.337057644
OW_NATURE_BIG_TREE_02_380P.3DS 0 0 0 76018.560720634 3465.9611816406 -6238.0387655062
OW_NATURE_BIG_TREE_02_380P.3DS 0 0 0 73319.853475508 3118.8879394531 -18185.890399741
MIN_LOB_STONE_V2_30.3DS 0 0 0 59815.058598964 1571.2265625 8646.1509002616
MIN_LOB_STONE_V3_40.3DS 0 0 0 60098.251932678 1571.2265625 8889.4087712595
MIN_LOB_STONE_V1_30.3DS 0 0 0 60267.444617302 1607.1234130859 8532.6398590292
MIN_LOB_STONE_V1_30.3DS 0 0 0 60104.766812437 1677.1234130859 8392.902613272
MIN_LOB_PLANKS_3X11M.3DS 85 -110 0 2225.2175169685 2342.9162597656 15682.5917648
MIN_LOB_PLANKS_3X11M.3DS 85 -100 0 2326.9681246668 2321.6145019531 15169.473638266
MIN_LOB_PLANKS_3X11M.3DS 85 -10 0 1741.5401128489 2248.0859375 14349.553325918
MIN_LOB_PLANKS_3X11M.3DS 85 -10 0 752.51503856523 2236.6677246094 14194.058776262
OW_LOOKOUT.3DS 0 85 0 70119.553917563 2217.4506835938 -12634.660149898
MIN_LOB_PLANKS_3X7M.3DS 5 0 -30 70981.376962214 3046.8034667969 -12472.235003117
OW_LOB_FENCE_V1.3DS 0 115 0 16577.814326298 1713.4772949219 -15261.898266191
OW_LOB_FENCE_V1.3DS 0 115 -5 16455.31974213 1722.7894287109 -15538.825176417
OW_LOB_FENCE_V1.3DS 0 125 -5 16296.849023171 1775.2147216797 -15783.27558693
OW_LOB_FENCE_V1.3DS 0 140 0 16095.037857223 1783.2668457031 -16012.950764075
OW_LOB_FENCE_V1.3DS 0 110 0 15934.493319021 1703.2546386719 -15058.03731875
OW_LOB_FENCE_V1.3DS 0 110 0 15844.199591861 1709.4185791016 -15337.929282765
OC_SAECKE_01.3DS 0 0 0 16130.992648104 1731.3526611328 -15000.300967616
OC_BARREL_V1_DESTROYED.3DS 0 0 0 15964.832604222 1839.6348876953 -16056.93821643
NW_MISC_STRAW_GROUP_01.3DS 0 0 0 16700.213269776 1791.3615722656 -15442.15223018
NW_MISC_STRAW_02.3DS 0 0 0 16301.647506435 1887.4904785156 -16017.43863272
BSCOOL_OC.MDS 0 0 0 16037.49637082 1799.5085449219 -15992.828417924
BEAM_ML.3DS 0 0 0 2464.5777004115 2144.5278320313 14403.475118071
BEAM_ML.3DS 0 0 0 2398.9924990727 2160.3059082031 14790.645962573
NW_MISC_GRAVESTONE_01.3DS 0 55 0 12655.483100282 2976.4909667969 15236.200383186
OW_PALISSADE.3DS 0 -95 15 -23453.665295547 -374.44609069824 2945.4554198542
OW_PALISSADE.3DS 0 -95 15 -23419.569946209 -391.87145996094 2609.665930545
OW_PALISSADE.3DS 0 -95 15 -23383.230423253 -340.6827545166 1922.2366602489
OC_TABLE_V2.3DS 5 -10 0 -24123.255535798 -456.16723632812 3008.564156041
OC_SHELF_V1.3DS 5 30 -5 -26972.683642525 -170.53791046143 3008.8581311668
OC_LOB_TABLE_HEAVY.3DS -5 30 -5 -27111.926078036 -214.56369018555 2452.4163228027
OC_FIREPLACE_V5.3DS -5 30 -5 -26267.786066644 86.852436065674 1262.5722839341
OC_BARREL_V1.3DS -5 100 -5 -25857.262322202 257.80038452148 248.51987495018
OC_SAECKE_01.3DS 15 40 10 -25802.021329416 198.06115722656 435.13122983432
NW_HARBOUR_CRATE_01.3DS 5 10 0 -25839.121993739 237.0085144043 338.7745913903
NW_CITY_CANDLE_01.3DS 0 -70 0 -27166.714703161 -107.83010864258 2431.6466279567
NW_CITY_MAP_WAR_CLOSED_01.3DS 5 -60 5 -27012.835392131 -129.47216796875 2412.9575310355
NW_HARBOUR_CRATEPILE_01.3DS 5 0 0 -26029.09824962 327.66305541992 124.64592538846
ITMW_2H_ORCAXE_01.3DS -140 25 -80 -26739.763039862 -37.853820800781 2185.5377901232
ITMI_POCKET.3DS -165 60 -160 -27068.537133472 -108.18521881104 2386.8445471172
NW_HARBOUR_BARRELGROUP_01.3DS 5 -5 -5 -26257.337500267 293.79110717773 330.78923240551
NW_HARBOUR_BARRELGROUP_02.3DS 5 -5 -5 -26275.85128543 231.42692565918 461.70087895127
NW_HARBOUR_CRATEPILE_01.3DS 5 -5 -5 -26317.527039866 362.60827636719 115.59206590134
OW_LOB_WOODPLANKS_V5.3DS -180 205 -180 -23859.038532736 -96.494201660156 3014.647857719
NW_CITY_MAP_WAR_OPEN_01.3DS -175 330 -185 -27085.805379701 -123.52702331543 2430.9732404947
OW_PALISSADE.3DS -5 180 -5 -25791.295372873 -125.8766784668 670.0890735707
PC_SHOP_V01.3DS -5 200 0 -26086.161066644 84.071632385254 687.6528503403
ITFO_WATER.3DS -180 -25 -180 -24077.767455236 -352.5419921875 2995.808484102
OW_PALISSADE.3DS -15 140 -5 -26440.433633867 -94.086959838867 642.19749088356
ITFO_SAUSAGE.3DS -180 -25 -185 -24108.938923361 -364.84539794922 3011.7303772503
ITFO_CHEESE.3DS -180 -25 -185 -24155.449064065 -364.84539794922 2996.9106780919
OW_PALISSADE.3DS -15 125 -5 -26732.59906305 -0.42337036132812 308.80527316062
ITAT_WARGFUR.3DS -185 5 -165 -23907.240878215 -398.96395874023 2790.4963335286
ITAT_WOLFFUR.3DS -180 -135 -180 -24133.223416624 -392.62777709961 2602.6647467495
DT_CRATE_V2.3DS -180 -110 -175 -23816.125726687 -54.415787696838 3080.8440589261
OC_LOB_PLANKBROKEN_SMALL.3DS -5 95 80 -26309.720461114 9.4836379289627 1094.1899765559
OC_KITCHENSTUFF_V01.3DS -180 5 -175 -23982.351240883 -157.36962890625 3033.5150684542
OC_FIREWOOD_V1.3DS -185 5 -175 -24262.896067852 -443.26916503906 2860.5564436778
OC_LOB_PLANKBROKEN_SMALL.3DS 100 160 165 -26493.230492847 -27.139310836792 1306.8820227031
ITFO_WINE.3DS -185 5 -175 -23722.560180584 -73.797641038895 2934.22257117
OW_PALISSADE.3DS -165 65 -175 -28149.10861498 -258.56988525391 2564.3422275602
OW_PALISSADE.3DS -175 90 -175 -28518.935843661 389.35064697266 789.64068803703
OW_LOB_WOODPLANKS_V1.3DS -190 -65 -170 -23884.302368084 -95.639197349548 2983.8031375763
NW_NATURE_FENCE_01.3DS -190 -35 -170 -27037.749470236 -339.80444335938 4242.8187561565
NW_NATURE_FENCE_01.3DS -175 -215 -175 -26802.514006241 -307.93646240234 4046.8678831621
MIN_LOB_PLANKS_3X7M.3DS -95 40 0 13668.25147378 1760.3725585938 -19087.052951491
MIN_LOB_PLANKS_3X7M.3DS -95 45 0 13130.603972228 1753.4842529297 -18642.333843149
MIN_LOB_PLANKS_3X7M.3DS -95 25 0 12629.004047762 1823.6027832031 -18154.824262041
MIN_LOB_PLANKS_3X7M.3DS -95 55 0 11964.307647115 1842.7071533203 -17883.04998418
MIN_LOB_PLANKS_3X7M.3DS -95 55 0 11543.885513223 1709.4541015625 -17311.089250673
MIN_LOB_PLANKS_3X7M.3DS -95 80 0 11124.795057464 1573.9587402344 -16749.008483984
MIN_LOB_PLANKS_3X7M.3DS -95 80 0 10987.29104195 1618.7242431641 -16052.59881369
MIN_LOB_PLANKS_3X7M.3DS -95 30 0 10880.903419987 1618.0032958984 -15379.250754278
MIN_LOB_PLANKS_3X7M.3DS -95 30 0 10270.8198205 1617.5543212891 -15041.430473599
MIN_LOB_PLANKS_3X7M.3DS -90 35 10 9651.7533034617 1577.6351318359 -14704.763165171
MIN_LOB_PLANKS_3X7M.3DS -90 25 10 9417.5984303149 1436.5031738281 -14454.923701252
MIN_LOB_PLANKS_3X7M.3DS -90 95 10 8770.0414497686 1321.5740966797 -14162.222737192
MIN_LOB_PLANKS_3X7M.3DS -90 95 10 8809.1164142078 1324.1604003906 -13463.391008868
MIN_LOB_PLANKS_3X7M.3DS -100 135 0 8856.3193323824 1299.7739257812 -12737.825923038
MIN_LOB_PLANKS_3X7M.3DS -100 170 0 9345.3263880386 1308.0015258789 -12208.346818293
MIN_LOB_PLANKS_3X7M.3DS -100 220 0 10061.059490904 1303.4400634766 -12072.034611587
MIN_LOB_PLANKS_3X7M.3DS -95 215 0 10303.878109301 1362.8395996094 -11781.328801996
MIN_LOB_PLANKS_3X7M.3DS -95 265 0 10274.590447225 1394.3087158203 -11091.467114769
MIN_LOB_PLANKS_3X7M.3DS -95 300 0 10634.342175255 1390.3483886719 -10478.727216947
MIN_LOB_PLANKS_3X7M.3DS -95 315 0 11108.828992771 1369.4100341797 -9958.0151683883
MIN_LOB_PLANKS_3X7M.3DS -95 285 0 11274.536021556 1492.0830078125 -9270.4266521534
NW_CITY_CARPET_02.3DS 0 -55 0 3380.4717488565 -105.22346401215 -5776.60161831
NW_MISC_CAVE_BOARDING_01.3DS 0 315 0 59273.949894709 7095.9799804688 39499.932842072
OW_LONEHUT.3DS 0 -45 0 59043.945022942 6850.3125 40882.186879347
EVT_NC_MAINGATE01.3DS 0 35 0 57402.990503837 7224.9716796875 40090.24718346
EVT_NC_MAINGATE01.3DS 0 35 0 58010.984092865 7207.7783203125 39680.129145911
EVT_OC_MAINGATE02_02.3DS 0 35 0 57702.367866911 7580.859375 39903.922511892
NW_NATURE_FENCE_01.3DS 0 -15 5 47441.153943504 4873.0595703125 20326.417107865
NW_NATURE_FENCE_01.3DS 0 -25 5 47175.268055712 4872.8310546875 20212.042411125
NW_NATURE_FENCE_01.3DS 0 -25 5 46928.307865455 4870.9497070313 20057.82239522
NW_NATURE_FENCE_01.3DS 0 -120 5 46883.294290094 4870.9443359375 19873.552797718
NW_NATURE_FENCE_01.3DS 0 -120 5 47053.059132233 4870.9497070313 19604.152289396
NW_NATURE_FENCE_01.3DS 0 -120 5 47190.145163263 4870.9599609375 19339.015817467
NW_NATURE_FENCE_01.3DS 0 -120 5 47642.922993014 4871.5478515625 20264.59513641
NW_NATURE_FENCE_01.3DS 0 -120 5 47788.2605307 4871.7963867188 20033.502769781
NW_NATURE_FENCE_01.3DS 0 -120 5 47953.295037763 4870.966796875 19779.669269019
NW_NATURE_FENCE_01.3DS 0 -80 5 47999.552524115 4870.6459960938 19532.161922511
NW_NATURE_FENCE_01.3DS 0 10 5 47374.148677348 4860.9516601563 19130.072264356
NW_NATURE_FENCE_01.3DS 0 -5 5 47834.226866384 4862.7436523438 19347.572961897
NW_NATURE_FENCE_01.3DS 0 -20 5 47376.401963869 4860.962890625 19195.227617009
OC_SAECKE_01.3DS 0 -65 0 47560.775093839 4911.9638671875 19248.181215381
OC_BARREL_V1.3DS 0 -65 0 47884.784795159 4920.9658203125 19425.34516144
OC_BARREL_V1.3DS 0 -65 0 47810.802632434 4916.3540039063 19401.127255747
OC_GARBAGE_V1.3DS -5 15 -20 32379.85045522 4839.7680664063 24629.316226948
DT_BOOKS_01.3DS 0 -30 0 8142.3747416622 376.48934936523 -3552.0696070599
DT_BOOKS_01.3DS 0 50 0 8411.3002011503 367.32659912109 -3378.9341970157
ITWR_SCROLL_02.3DS 0 -110 0 8102.4321872448 374.15383911133 -3542.5244664656
ITWR_BOOK_02_01.3DS 0 -110 -5 8069.0102819945 376.55865478516 -3402.3877879754
DT_BOOKS_01.3DS 0 0 0 10566.465459221 1393.8842773438 -2989.0867233259
OC_WEAPON_SHELF_OLD_V1.3DS 0 -185 0 10875.114533949 897.72137451172 -3005.0681634472
OC_PICTURE_V1.3DS 0 40 0 11261.793490581 1037.1079711914 -2147.3689094693
NW_CITY_CANDLE_01.3DS 0 40 0 10506.556934653 1006.4325561523 -2714.8925549986
NW_CITY_BOOKSHELF_01.3DS 0 -50 0 10043.982697862 1048.2397460938 -2681.2726948709
NW_MISC_CAVE_BOARDING_01.3DS 0 -10 0 1479.8598939262 3066.3549804688 19700.581496859
EVT_NC_MAINGATE01.3DS 0 -40 0 53050.980590621 3245.8352050781 -26752.909912883
EVT_NC_MAINGATE01.3DS 0 -40 0 52802.70022494 3256.6518554688 -26964.345037539
EVT_NC_MAINGATE01.3DS 0 -40 0 53341.276732759 3371.1059570313 -26515.445771731
EVT_NC_MAINGATE01.3DS 0 -40 0 52710.78747259 3372.8078613281 -27072.194590303
EVT_NC_MAINGATE01.3DS 0 -50 0 53025.899965311 3369.6179199219 -26809.75708566
OC_LOB_GATE_SMALL3.3DS 0 0 0 51179.464931673 2201.6740722656 -30146.931860721
OC_LOB_GATE_SMALL3.3DS 0 0 0 50789.203059196 2201.7802734375 -30155.439470317
OC_LOB_GATE_SMALL3.3DS 0 85 0 51347.210871696 2200.3706054688 -29954.457048442
OC_LOB_GATE_SMALL3.3DS 0 85 0 50584.675392868 2195.0148925781 -29959.97663952
OC_LOB_GATE_SMALL3.3DS 5 90 -85 51032.89688025 2592.4267578125 -29945.915584564
OC_LOB_GATE_SMALL3.3DS 5 90 -85 50590.091912763 2579.9079589844 -29946.223309106
OC_LOB_GATE_SMALL3.3DS 5 90 -85 50839.84138238 2590.4152832031 -29952.393939707
OC_LOB_GATE_SMALL3.3DS 0 180 0 51151.541510665 2181.2155761719 -29772.962627861
OC_LOB_GATE_SMALL2.3DS 0 180 -90 50566.735653025 2410.2072753906 -29766.148510897
OC_DECORATE_V2.3DS 0 90 -90 51112.581160829 2265.3723144531 -29874.48641257
OC_DECORATE_V2.3DS 0 85 -90 51106.792863964 2253.5314941406 -29970.496980816
OC_DECORATE_V2.3DS 0 85 -90 51113.917863964 2245.3332519531 -30063.598543316
OC_DECORATE_V2.3DS 0 80 -95 50984.310092717 2270.2355957031 -29870.727167899
OC_DECORATE_V2.3DS 0 80 -95 50983.26835077 2246.2019042969 -29972.324377713
OC_DECORATE_V2.3DS 0 90 -95 50979.750022565 2246.5698242188 -30073.846695217
ORC_SKELETON_V1.3DS 0 -130 0 50627.956696884 2230.2834472656 -30115.727819963
ORC_SKELETON_V2.3DS 0 -50 -5 50663.254240337 2265.3352050781 -29829.360529451
ITAT_TROLLFUR.3DS 0 -50 -5 43560.996336961 2840.7561035156 -22582.504206069
ITAT_TROLLFUR.3DS 0 -50 -5 43452.386961961 2842.8640136719 -22554.978815444
ITAT_TROLLFUR.3DS 0 -50 -5 43476.461180711 2844.8952636719 -22467.695612319
ITAT_TROLLFUR.3DS 0 -50 -5 43604.640868211 2844.181640625 -22434.349909194
INNOS_BELIAR_ADDON_01.ASC 0 -175 0 51080.741019194 2948.6064453125 -17822.164605928
ITMI_GOLDCHEST.3DS 0 -5 0 48319.1396237 5130.5336914063 22438.63761525
ITMI_GOLDCHEST.3DS 0 -5 0 48319.1396237 5130.5336914063 22438.63761525
ITMI_GOLDCHEST.3DS 0 -5 0 48319.1396237 5130.5336914063 22438.63761525
ITMI_GOLDCHEST.3DS 0 -5 0 48319.1396237 5130.5336914063 22438.63761525
ITMI_GOLDCHEST.3DS 0 -5 0 48319.1396237 5130.5336914063 22438.63761525
ITMI_GOLDCHALICE.3DS 0 -5 0 48482.446046032 5130.5336914063 22392.115313321
ITMI_GOLDCHALICE.3DS 0 -5 0 48451.862818857 5130.9399414063 22375.954840063
ITMI_GOLDCHALICE.3DS 0 -5 0 48481.163001608 5130.9345703125 22360.974103406
ITMI_INNOSSTATUE.3DS 0 30 0 48581.92537229 5167.6684570313 22121.131415343
ITMI_GOLDCUP.3DS 0 30 0 48593.731581841 5160.8432617188 22094.255350809
ITMI_GOLDCANDLEHOLDER.3DS 0 30 0 48716.363015288 5170.5336914063 21872.41244411
ITMI_GOLD.3DS 0 30 0 48295.826533735 5116 22418.960898931
ITMI_GOLD.3DS 0 30 135 48290.988968193 5120.9580078125 22414.68844225
ITMI_GOLD.3DS 0 30 180 48296.694650931 5120.9580078125 22394.051900369
ITMI_GOLD.3DS 0 30 170 48300.219518734 5120.9580078125 22410.50574079
ITMI_GOLD.3DS 0 30 170 48296.342487576 5119.9326171875 22405.224038646
ITMI_GOLD.3DS 0 30 170 48290.437844345 5120.1801757813 22382.205173563
ITMI_GOLD.3DS 0 30 170 48297.414988735 5120.9736328125 22402.825912573
ITMI_GOLDPLATE.3DS 0 30 0 48509.000490173 5119.328125 22341.83019992
ITMI_HOLYWATER.3DS 0 30 0 48612.53865354 5159.5961914063 22124.570868468
ITMI_JEWELERYCHEST.3DS 0 -40 0 48229.849307963 5129.0927734375 22414.273763862
ITMI_POCKET.3DS 0 -40 0 48248.680041102 5129.3935546875 22399.240812529
ITMI_GOLDCHEST.3DS 0 40 0 50853.536958469 4349.9594726563 18418.217358055
ITMI_GOLDCHEST.3DS 0 60 0 50920.579927219 4349.2270507813 18305.20368618
ITMI_GOLD.3DS 0 60 0 50839.703644718 4341.1528320313 18372.111896197
ITMI_GOLDRING.3DS 0 60 0 50877.940066261 4340.5336914063 18333.084350754
ITMI_JEWELERYCHEST.3DS 0 60 0 50875.488368047 4350.9399414063 18355.240225971
ITMI_JEWELERYCHEST.3DS 0 60 0 50849.702285821 4349.361328125 18324.01908205
ITMI_POCKET.3DS 0 60 0 50827.764785821 4347.1284179688 18407.771035175
ITMI_POCKET.3DS 0 60 0 50805.803848321 4350.8432617188 18401.720253925
ITMI_POCKET.3DS 0 60 0 50810.572067471 4350.5336914063 18365.690544458
ITMI_POCKET.3DS 0 60 0 50765.009567471 4350.1752929688 18372.309685083
ITMI_POCKET.3DS 0 60 0 50798.208786221 4350.947265625 18355.022575708
ITMI_POCKET.3DS 0 60 0 50817.743942471 4350.9526367188 18334.637810083
ITMI_POCKET.3DS 0 60 0 50846.712692471 4350.8432617188 18363.237419458
ITMI_INNOSSTATUE.3DS 0 60 0 50860.06689494 4350.9633789063 18295.489915826
ITMI_JEWELERYCHEST.3DS 0 60 0 50868.34423869 4349.8334960938 18271.234056451
ITWR_BOOK_02_05.3DS 0 60 0 48565.907423028 5128.8681640625 22221.913073448
ITWR_BOOK_02_04.3DS 0 70 0 48556.971745617 5120.9526367188 22212.730582842
ITWR_BOOK_02_02.3DS 0 70 0 48551.814834467 5120.9580078125 22239.188871383
ITWR_BOOK_02_01.3DS 10 75 55 48592.902570263 5130.96875 22242.375363835
ITWR_SCROLL_02.3DS 10 75 20 48520.725123551 5120.7407226563 22275.384143245
ITWR_SCROLL_02.3DS 70 110 -30 48520.475123551 5127.0961914063 22274.19859637
ITWR_SCROLL_02.3DS 70 110 -10 48548.756751608 5118.7880859375 22290.690900281
OC_LOB_FIREPLACE_HUGE.3DS 170 300 180 47572.748391075 5060.9409179688 21480.116946466
OC_LOB_FIREPLACE_HUGE.3DS 190 300 175 46374.393127136 5049.8525390625 20754.575302516
OC_LOB_FIREPLACE_HUGE.3DS 190 300 175 49820.396670822 5049.265625 17745.483900562
DT_BOOKS_01.3DS 0 35 0 50434.041855495 5088.94921875 18048.678348654
FAKESCROLL.3DS 5 35 0 50372.307360526 5096.6123046875 18173.73060786
ITWR_BOOK_02_05.3DS 5 35 0 50829.134753803 5000.951171875 18434.618621078
ITWR_BOOK_02_04.3DS 5 35 0 50829.134753803 5010.951171875 18434.618621078
ITWR_BOOK_02_03.3DS -5 35 -25 50851.926373601 4999.4682617188 18424.330020096
ITWR_BOOK_02_05.3DS -55 30 0 50810.663238526 5008.818359375 18413.53563262
ITWR_BOOK_02_05.3DS 5 30 0 50860.328137826 5010.6577148438 18391.445375084
ITWR_BOOK_02_04.3DS 5 30 0 50860.328137826 5020.6577148438 18391.445375084
ITWR_BOOK_02_02.3DS 5 30 0 50860.328137826 5030.6577148438 18391.445375084
ITWR_BOOK_01.3DS 5 30 0 50860.328137826 5040.6577148438 18391.445375084
ITWR_BOOK_02_05.3DS 5 30 0 50857.485737885 4999.3706054688 18392.047772081
MIN_COB_STONE_V3_10.3DS 5 30 0 50658.104752644 4990.6577148438 18710.04610875
NW_CITY_DECO_SHADOWHEAD_01.3DS 0 60 0 50809.026811826 5200.0849609375 18520.522153845
NW_CITY_DECO_WOLFHEAD_01.3DS 0 55 0 50739.41845744 5210.9208984375 18613.208665826
NW_MISC_HUMAN_STANDY.3DS 0 -35 0 50295.725409252 5089.9721679688 18536.74273362
NW_MISC_STRAW_GROUP_01.3DS 0 -35 0 47029.424298396 4970.6630859375 19750.798585187
NW_MISC_STRAW_02.3DS 0 -35 0 47140.503127523 4970.9428710938 19553.591721728
OW_LOB_TREEGROUP_V1.3DS 0 -35 0 48473.381387836 4850.9409179688 18789.078229728
ITAT_TROLLFUR.3DS 0 0 0 51126.936937507 3084.20703125 -22247.709453379
ITAT_TROLLFUR.3DS 0 40 0 51041.522875007 3092.5693359375 -22233.141094004
ITAT_TROLLFUR.3DS 0 40 0 51047.080641845 3091.7280273438 -22323.866624638
ITAT_TROLLFUR.3DS 0 40 0 50985.665969058 3085.3889160156 -22334.495757819
ITAT_TROLLFUR.3DS 0 105 0 50959.641594391 3086.5629882813 -22177.283010073
ITAT_TROLLFUR.3DS 0 105 0 50933.000969391 3082.0490722656 -22236.017385073
ITAT_TROLLFUR.3DS 0 105 0 50898.270107982 3084.2451171875 -22315.587309954
ITAT_TROLLFUR.3DS 0 140 0 51152.412505188 3082.3562011719 -22398.063254475
ITAT_TROLLFUR.3DS 0 140 0 51089.709981546 3086.8703613281 -22473.469500051
ITAT_TROLLFUR.3DS 0 140 0 50991.771593252 3086.8703613281 -22491.773278249
ITAT_TROLLFUR.3DS 0 140 0 50896.260742835 3082.3942871094 -22420.519311067
ITAT_TROLLFUR.3DS 0 140 0 51008.736072903 3082.3942871094 -22451.502057892
ITAT_TROLLFUR.3DS 0 140 0 51102.896122637 3082.3942871094 -22436.44249602
ITAT_TROLLFUR.3DS 0 140 0 51203.040050458 3082.3942871094 -22368.706174294
ITAT_TROLLFUR.3DS 0 150 0 51247.846108715 3081.998046875 -22269.000956784
MIN_LOB_SOLDIERSHUT.3DS 0 150 0 51623.080209022 3036.3493652344 -23730.148608696
MIN_LOB_SOLDIERSHUT.3DS 5 255 0 50767.894730259 2940.705078125 -24358.709951662
NW_HARBOUR_BARRELGROUP_01.3DS 5 240 0 51497.633425748 3167.0366210938 -23576.45753384
NW_HARBOUR_BARRELGROUP_01.3DS 5 240 0 51651.152484231 3146.9670410156 -23811.881931883
NW_HARBOUR_BARRELGROUP_02.3DS 5 240 0 51469.715074597 3132.4470214844 -23788.471734401
OC_CHICKENSTICK_V01.3DS 5 255 0 50300.968502703 3085.46484375 -23909.601408009
OC_CHICKENSTICK_CHICKEN_V01.3DS 5 255 0 50326.687110632 3084.2175292969 -23990.853030812
OC_CHICKENSTICK_CHICKEN_V01.3DS 5 340 0 50291.585548132 3083.2036132813 -23831.058108937
OC_FIREPLACEBIG_V01.3DS -5 340 10 50701.905707079 3073.9487304688 -23646.61282629
OC_FIREPLACE_V5.3DS -5 340 10 50663.886502642 3201.0480957031 -23653.138052669
OC_FIREWOOD_V3.3DS -5 445 0 50350.718890481 2935.4465332031 -24330.028416258
OC_SAECKE_01.3DS 5 790 0 51114.662040849 3066.8505859375 -24114.60009493
OC_SHELF_V1.3DS 5 880 5 51002.062101206 2999.7668457031 -24316.446769559
OC_TABLE_V1.3DS 5 805 5 50479.106562054 2946.5559082031 -24314.318479132
OM_ORETABLE.3DS 5 895 5 50657.983312463 3018.8823242188 -23434.534382168
PC_SHOP_V01.3DS 5 895 5 50570.144806036 2969.1450195313 -24151.014206266
ITFO_BACON.3DS 5 850 5 50480.579446344 3035.6208496094 -24379.818296032
ITFO_BACON.3DS 5 850 5 50463.143723136 3033.5187988281 -24380.72224792
ITFO_BACON.3DS 5 850 5 50493.271915597 3047.9409179688 -24273.105114411
ITFO_BACON.3DS 5 895 5 50523.030557799 3047.4597167969 -24337.84902513
ITFOMUTTONRAW.3DS 5 950 5 50492.116638932 3047.4597167969 -24230.946719081
ITFOMUTTONRAW.3DS 5 950 5 50485.195198358 3038.8444824219 -24349.866304764
ITAT_WOLFFUR.3DS 5 910 5 50576.418657151 2964.0114746094 -24299.070794568
ITAT_WOLFFUR.3DS 5 910 5 50632.413948358 2971.6872558594 -24311.733492264
ITFOMUTTONRAW.3DS 5 910 5 50502.091736894 3045.3247070313 -24305.566068895
ITFOMUTTONRAW.3DS 5 805 5 50506.665689596 3045.4487304688 -24267.295481559
ITFOMUTTONRAW.3DS 5 805 5 50511.899652881 3038.6083984375 -24395.08740185
BSCOOL_OC.MDS 0 0 0 48693.363257205 4988.9174804688 21733.508847412
ITMI_SEXTANT.3DS 0 0 0 48724.901088494 5150.8432617188 21900.165007081
ITMW_005_1H_POKER_01.3DS 0 0 55 48574.216215391 5038.8056640625 22087.733406809
ITAT_WARGFUR.3DS 0 0 0 50753.295472192 3030.3215332031 -23932.196813805
ITAT_WARGFUR.3DS 0 0 0 50835.334534692 3040.2053222656 -23927.536657555
ITAT_WARGFUR.3DS 0 0 0 50903.676441922 3039.5434570313 -23941.032194891
ITAT_WARGFUR.3DS 0 80 0 50789.758278221 3037.2612304688 -23819.372207455
ITAT_WARGFUR.3DS -10 80 0 50888.569541272 3050.3642578125 -23833.764411564
ITAT_WARGFUR.3DS -10 80 0 50879.151956352 3052.3999023438 -23771.845988243
ITAT_WARGFUR.3DS -10 105 0 50789.987893852 3046.046875 -23780.842081993
ITAT_WARGFUR.3DS -10 145 0 50673.204834462 3028.1838378906 -23851.56412032
ITAT_WARGFUR.3DS -10 145 0 50681.150746516 3027.3010253906 -23961.477787663
ITAT_WARGFUR.3DS 0 155 0 50945.926351972 3058.4809570313 -23898.231701872
ITFO_WATER.3DS 0 155 0 50961.578593702 3065.8889160156 -24328.694780335
ITFO_WATER.3DS 0 155 0 50946.625468702 3062.7360839844 -24337.124467835
ITFO_WATER.3DS 0 155 0 50930.879374952 3059.4985351563 -24346.050249085
ITFO_WINE.3DS 0 155 0 51084.493753783 3048.4575195313 -24303.67728662
ITFO_WINE.3DS 0 155 0 51072.401715229 3052.2067871094 -24275.576647932
ITFO_WINE.3DS 0 155 0 51056.785259295 3052.9470214844 -24306.447466022
ITFO_WINE.3DS 0 155 0 51050.668071795 3044.1118164063 -24287.693559772
ITMI_MOLERATLUBRIC.3DS 0 155 0 51016.255924092 3049.5600585938 -24307.570980567
ITMI_MOLERATLUBRIC.3DS 0 155 0 51041.498111592 3049.8010253906 -24328.926449317
ITMI_PACKET.3DS 0 155 0 51078.101655142 3114.17578125 -24312.296376366
ITMI_PACKET.3DS 0 155 0 51060.865337926 3115.1840820313 -24279.06666847
ITMI_PAN.3DS 5 155 0 50998.888775426 3117.0786132813 -24299.98463722
ITMI_PAN.3DS 5 155 0 51016.255962926 3115.3503417969 -24333.978777845
ITWR_SCROLL_01.3DS -100 385 0 50962.233299361 3213.7109375 -23405.487735583
ITMW_005_1H_DAGGER_01.3DS -100 475 -25 50950.436700491 3236.9560546875 -23436.309630723
BSCOOL_OC.MDS 0 0 0 50735.258476548 2249.1333007813 -29833.695154791
ITAT_SHADOWFUR.3DS 0 0 0 50948.265810283 2241.4729003906 -30045.334940233
ITAT_SHADOWFUR.3DS 0 0 0 50881.533581924 2231.4729003906 -30057.806576001
ITAT_SHADOWFUR.3DS 0 -50 0 50798.265719613 2231.4729003906 -30052.120131242
ITAT_SHADOWFUR.3DS -10 -50 5 50820.593844613 2242.8413085938 -29960.069349992
ITAT_SHADOWFUR.3DS -10 -50 5 50877.713411902 2242.8413085938 -29966.481840148
ITAT_SHADOWFUR.3DS -10 -50 5 50965.578331089 2242.8413085938 -29954.777744544
ITAT_SHADOWFUR.3DS -10 -50 5 51034.839697861 2276.3520507813 -29990.395226003
ITAT_SHADOWFUR.3DS -10 -50 5 51140.089597487 2265.1701660156 -29995.963477416
OC_FIREWOOD_V2.3DS 0 -30 -5 47850.248970156 4990.5336914063 21237.884447619
OC_FIREWOOD_V2.3DS 5 -35 -5 46277.907407481 5000.5336914063 20846.262197302
OC_FIREWOOD_V2.3DS 5 60 -5 49726.122270505 4998.8969726563 17856.364151525
OC_FIREWOOD_V3.3DS 5 60 -5 46862.650533025 4889.025390625 19284.043945272
BSCOOL_OC.MDS 0 30 0 49927.697253906 5000.9487304688 18293.12155262
BSCOOL_OC.MDS 0 30 0 46654.089393683 4999.986328125 20504.466747944
BSCOOL_OC.MDS 0 30 0 48082.26101535 4990.65625 21365.356860213
ITFO_WINE.3DS 0 30 0 47328.251920612 5060.9580078125 17152.215759462
ITFO_WINE.3DS 0 30 0 47293.821787285 5059.8657226563 17130.873968461
ITFO_WINE.3DS 0 30 0 47285.575693535 5060.947265625 17149.635687211
ITFO_WINE.3DS 0 30 0 47316.368367837 5059.7568359375 17169.564916029
ITFO_WINE.3DS 0 30 0 47276.792881989 5060.8432617188 17168.747552756
ITFO_WINE.3DS 0 30 0 47262.808506989 5060.9580078125 17192.681146506
ITFO_WINE.3DS 0 30 0 47246.757725739 5060.9633789063 17217.604974631
ITFO_WINE.3DS 0 30 0 47230.718663239 5060.9399414063 17242.589349631
ITFO_WINE.3DS 0 30 0 47215.847569489 5060.9526367188 17265.952630881
ITFO_WINE.3DS 0 30 0 47195.718663239 5060.9526367188 17297.210443381
ITFO_WINE.3DS 0 30 0 47214.652256989 5060.5336914063 17308.644037131
ITFO_WINE.3DS 0 30 0 47232.363194489 5060.9399414063 17284.751459006
ITFO_WINE.3DS 0 30 0 47248.878819489 5060.9633789063 17259.384271506
ITFO_WINE.3DS 0 30 0 47264.519444489 5060.9633789063 17235.452630881
ITFO_WINE.3DS 0 30 0 47279.781163239 5060.9633789063 17212.022943381
ITFO_WINE.3DS 0 30 0 47295.867100739 5060.947265625 17187.220209006
ITMI_PACKET.3DS 0 30 0 47303.4031634 5010.8432617188 17151.086316371
ITMI_PACKET.3DS 0 60 0 47274.4656634 5010.9633789063 17199.709363246
ITMI_PACKET.3DS 0 60 0 47250.2312884 5017.3383789063 17252.996472621
ITMI_PACKET.3DS 0 60 0 47302.9109759 5020.9526367188 17148.644910121
ITMI_PACKET.3DS 0 60 0 47221.6297259 5009.5561523438 17296.443738246
ITMI_PAN.3DS -5 60 -10 47307.064420612 5120.947265625 17140.034118837
ITMI_PAN.3DS -5 60 -10 47275.634733112 5120.96875 17200.002868837
ITMI_PAN.3DS -5 60 -10 47244.548795612 5120.9580078125 17259.297790712
ITMI_PITCH.3DS -5 60 -5 47306.991201901 5180.9526367188 17148.089593353
ITMI_PITCH.3DS -5 60 -5 47285.327139401 5180.96875 17171.081780853
ITMI_SILVERCUP.3DS -5 60 -5 47272.749653899 5190.9052734375 17195.016893685
ITMI_SILVERCUP.3DS -5 60 -5 47265.827778899 5190.9360351563 17213.493456185
ITMI_SILVERCUP.3DS -5 60 -5 47256.780903899 5190.9516601563 17233.97197181
ITMI_SILVERCUP.3DS -5 60 -5 47248.804341399 5190.9633789063 17252.01884681
ITMI_SILVERCUP.3DS -5 60 -5 47240.218403899 5190.9477539063 17271.45634681
ITMI_SILVERCUP.3DS -5 60 -5 47229.230122649 5190.9438476563 17296.512987435
ITMW_007_1H_SICKLE_01.3DS -5 80 -5 47577.162717066 5120.8432617188 16692.624267825
ITMW_007_1H_SICKLE_01.3DS -5 110 -5 47558.260373316 5120.9526367188 16732.678955325
ITMW_010_1H_VLK_HATCHET_01.3DS -5 100 -5 47548.166623316 5120.9580078125 16752.839111575
ITMW_010_1H_VLK_HATCHET_01.3DS -5 100 -5 47533.979123316 5120.9580078125 16780.28247095
ITMW_012_1H_SCYTHE_01.3DS -5 85 0 47513.826779566 5120.9633789063 16818.925049075
ITMW_012_1H_SCYTHE_01.3DS -5 80 0 47499.022092066 5120.5336914063 16810.60278345
ITPO_MANA_02.3DS -5 80 0 47462.796528899 5180.9526367188 16842.54619056
ITPO_MANA_02.3DS -5 80 0 47476.933247649 5180.94140625 16810.798143685
ITPO_MANA_02.3DS -5 80 0 47489.956685149 5180.955078125 16781.641893685
ITPO_MANA_02.3DS -5 80 0 47503.847310149 5180.9594726563 16750.720018685
ITPO_MANA_02.3DS -5 80 0 47489.913716399 5180.96484375 16843.27275306
ITPO_MANA_02.3DS -5 80 0 47504.101216399 5178.9409179688 16811.41728431
ITPO_MANA_02.3DS -5 80 0 47517.441060149 5180.9501953125 16781.477831185
ITPO_PERM_HEALTH.3DS -5 80 0 47535.694966399 5180.9477539063 16740.60087806
ITPO_PERM_HEALTH.3DS -5 80 0 47551.659810149 5179.0102539063 16704.76103431
ITPO_PERM_HEALTH.3DS -5 80 0 47565.593403899 5180.947265625 16673.47197181
ITPO_PERM_HEALTH.3DS -5 80 0 47530.620747649 5180.4985351563 16711.516893685
ITPO_PERM_HEALTH.3DS -5 80 0 47543.901997649 5178.1264648438 16686.579393685
OC_FIREPLACE_V2.3DS -5 55 -5 47803.288070599 4989.9838867188 17996.51109988
NW_MISC_GRAVESTONE_02.3DS 0 -35 0 14395.991427126 1056.8435058594 2180.4202399135
NW_MISC_GRAVESTONE_02.3DS 0 -40 0 14296.588229347 1035.6870117188 2104.9587661773
DT_2ND_FLOOR_BANNKREIS_02.3DS 0 60 0 -1265.1795562658 2413.5627441406 16203.237546832
DT_BOOKS_01.3DS 0 -145 0 -876.16196554421 2502.4165039063 16507.07646142
DT_SHELF_V1.3DS 0 -300 0 -825.59667326762 2453.6604003906 16896.92242112
DT_TABLE_01.3DS 0 -300 0 -2033.2550150183 4346.33203125 16382.803165146
OC_BIGLIGHTER_01.3DS 0 0 0 -901.66796874934 2767.7719726563 16491.247038548
BSCOOL_OC.MDS 0 0 0 7731.4394537722 136.36543273926 1105.9045170584
ITAT_WARGFUR.3DS 0 120 0 7969.1580909063 134.21379089355 957.22715866448
ITAT_WOLFFUR.3DS 0 210 0 9013.7323879847 136.29615783691 836.60454607927
ITMI_BROOM.3DS 15 165 -90 8036.0187763354 254.837890625 874.898930219
ITMI_JEWELERYCHEST.3DS 0 170 0 7784.7903913541 238.45297241211 1079.4345166841
ITMI_LUTE.3DS -10 0 -65 7641.9812574429 215.30252075195 1308.5731218321
ITMI_SILVERPLATE.3DS 0 20 0 8023.253026058 230.39538574219 1446.4163548267
ITFO_APPLE.3DS 0 20 0 8027.0757522639 234.30146789551 1447.1685773159
ITFO_APPLE.3DS 0 20 -10 8014.5255798107 234.30647277832 1438.0791074012
ITFO_APPLE.3DS 0 20 15 8028.6841834707 233.54681396484 1433.6670737313
ITFO_APPLE.3DS 0 20 15 8035.5823629471 234.31275939941 1442.7577226821
ITFO_APPLE.3DS 0 20 60 8015.5003352807 234.31275939941 1455.0123708064
ITFO_APPLE.3DS -100 20 50 8037.4851492876 233.25500488281 1455.1792511935
ITFO_APPLE.3DS -100 -40 45 8028.0932093257 233.55435180664 1460.1478718968
ITFO_APPLE.3DS -100 25 45 8019.3343933163 243.31893920898 1439.0768469191
ITFO_APPLE.3DS -100 -100 105 8025.1844246693 243.32064819336 1452.3263871331
ITFO_APPLE.3DS -100 -100 -15 8008.7640241666 234.16348266602 1442.9463575045
ITFO_APPLE.3DS 15 20 0 48501.653877286 5123.3095703125 22343.618916025
ITFO_APPLE.3DS 15 20 55 48517.586385264 5123.54296875 22347.363856316
ITFO_APPLE.3DS -50 20 55 48514.420481055 5124.859375 22333.088657408
ITFO_WINEBERRYS_01.3DS -15 20 60 48499.317610288 5124.44921875 22332.253019454
ITFO_APPLE.3DS 25 -20 60 48506.588191549 5128.1918945313 22349.284775572
ITFO_APPLE.3DS 10 -60 10 48509.551041109 5128.974609375 22337.318643411
ITFO_APPLE.3DS 10 -60 10 48524.386849208 5125.4453125 22338.950375172
ITMI_POCKET.3DS 10 -60 -10 48320.043198313 5135.6103515625 22463.213605292
NW_HARBOUR_CRATEPILE_01.3DS 0 0 0 8533.7299087104 225.38204956055 2034.8643050059
NW_HARBOUR_BARREL_01.3DS 0 -30 5 9141.000837641 176.40061950684 1940.1965092574
NW_HARBOUR_BARREL_01.3DS 0 -30 5 9094.0594132366 176.38310241699 1879.581526913
NW_MISC_STRAW_02.3DS 0 -30 5 8927.0134482648 174.99304199219 1591.612536806
NW_MISC_STRAW_01.3DS 0 -55 0 8981.3170527844 166.41188049316 1665.1276552248
NW_HARBOUR_BARREL_01.3DS 0 -55 0 8583.6001266176 164.4217376709 2197.2296981351
NW_HARBOUR_BARREL_01.3DS 0 -55 0 8357.0297170069 164.39682006836 1964.1527758282
NW_HARBOUR_BARREL_01.3DS 0 -55 0 8488.6189011707 166.05514526367 1900.187210112
OC_BARREL_V1_DESTROYED.3DS 0 -55 0 8700.5146969232 166.3970489502 2153.9101101134
ITFO_BOOZE.3DS 0 -55 0 9128.910391784 239.33804321289 1949.7284605768
ITFO_BOOZE.3DS 0 -55 -95 9147.5310987786 238.59989929199 1931.8667713337
ITFO_WINE.3DS 0 -55 0 9124.4060987786 237.26446533203 1924.0497547321
ITFO_BOOZE.3DS 0 0 0 8061.7700077643 238.12532043457 1443.3724973142
ITFO_BOOZE.3DS 0 0 0 8081.3354079785 238.20724487305 1442.9423163486
ITFO_BOOZE.3DS 0 0 0 8095.8956288178 238.20724487305 1433.344622067
ITFO_BOOZE.3DS 0 0 0 8060.6203786476 235.37040710449 1425.9571742161
ITFO_BOOZE.3DS 0 0 0 8082.2619454896 238.81692504883 1425.5419038787
ITFO_BOOZE.3DS 0 0 0 8097.7452101909 238.81692504883 1417.5179222858
ITFO_BOOZE.3DS 0 0 0 8110.6613756188 236.8406829834 1425.7104694806
ITFO_BOOZE.3DS 0 0 0 8060.0144993596 237.22286987305 1451.9181847571
ITFO_BEER.3DS 0 0 0 8089.5496396735 238.21263122559 1393.9427948975
ITFO_BEER.3DS 0 0 0 8077.860763372 238.20903015137 1406.5256798815
ITFO_BEER.3DS 0 60 0 8060.777141955 238.20903015137 1403.0234454957
ITFO_BEER.3DS 0 105 0 8044.6810532913 236.88226318359 1415.3355718007
ITFO_BEER.3DS 0 40 0 8074.5949790949 236.78198242188 1377.2768578613
ITFO_BEER.3DS 0 80 0 8059.2261990738 235.62213134766 1386.2448732148
ITFO_BEER.3DS 0 15 0 8034.4142490555 238.21197509766 1402.4025461177
ITFO_BEER.3DS 0 15 0 7901.9748849992 236.72744750977 1104.3272677171
ITFO_BEER.3DS 0 105 0 7961.5033727817 238.28846740723 1233.4369615041
NW_NATURE_FENCE_01.3DS 0 70 0 7593.4368779328 121.4771270752 2216.4795419235
OC_DECOROOF_V1.3DS 0 35 0 7829.2239644265 207.91688537598 2056.5103871598
OC_BARRELS_REIHE.3DS 0 40 0 8334.2187975825 125.6368560791 2283.9453686544
NW_HARBOUR_CRATEPILE_01.3DS 0 40 0 8281.5952645403 127.96008300781 2069.996197663
NW_HARBOUR_CRATE_01.3DS 0 10 0 8460.1071768364 268.32290649414 1984.7426450237
NW_HARBOUR_FISHINGNETSMALL.3DS -35 15 10 8221.0589374436 158.31163024902 2069.6796593314
NW_CITY_CART_01.3DS 0 65 0 7492.0270883767 170.12605285645 2174.3208435524
ITAT_WOLFFUR.3DS 0 65 0 7788.631332318 138.05151367188 2213.2348547632
ITAT_WOLFFUR.3DS 0 -30 0 7834.5142542435 136.66729736328 2444.1741860481
ITAT_WOLFFUR.3DS 0 10 0 7889.5845503217 138.33444213867 2313.3957701876
DT_CRATE_V2.3DS 0 40 0 8216.2649940381 146.35789489746 2275.6630345198
OC_WEAPON_SHELF_NEW_V2.3DS 0 340 0 7948.4282906455 126.35121154785 2555.6664682755
OC_SAECKE_01.3DS 0 405 0 8156.6349036606 152.87475585938 2483.8681224699
OC_SAECKE_02.3DS 0 420 0 8154.3046306419 164.04905700684 2346.5205690996
OC_SACK_V03.3DS 0 415 -35 8084.8200464903 126.22229003906 2462.3544425038
OC_FIREPLACEBIG_V01.3DS 0 635 0 7693.2966428455 165.35758972168 2382.1935715334
OC_FIREWOOD_V3.3DS 0 660 0 7584.0921610844 126.34790039063 1395.4700621311
OC_DECOROOF_V2.3DS 0 845 0 7499.5353162079 212.63595581055 1480.6004334205
